interactions:
- request:
    body: '{"saleor_app_id": "uzfbqpkchx", "saleor_api_url": "https://sbnpsagopi.saleor.cloud/graphql",
      "jwks": "{\"keys\": [{\"kty\": \"RSA\", \"key_ops\": [\"verify\"], \"n\": \"jrlyhkvronpcuskqfhnhbbpjtvcrce\",
      \"e\": \"AQAB\", \"use\": \"sig\", \"kid\": \"1\"}]}", "domain": "sbnpsagopi.saleor.cloud",
      "token": "lbnetlmnjviofvjvleoyhotmbsaheg"}'
    headers:
      accept:
      - '*/*'
      accept-encoding:
      - gzip, deflate
      authorization:
      - Bearer access.token
      connection:
      - keep-alive
      content-length:
      - '337'
      content-type:
      - application/json
      host:
      - apl.example.com
      user-agent:
      - python-httpx/0.23.3
    method: POST
    uri: https://apl.example.com/api/v1/apl
  response:
    content: '{"saleor_api_url":"https://sbnpsagopi.saleor.cloud/graphql","token":"lbnetlmnjviofvjvleoyhotmbsaheg","jwks":"{\"keys\":
      [{\"kty\": \"RSA\", \"key_ops\": [\"verify\"], \"n\": \"jrlyhkvronpcuskqfhnhbbpjtvcrce\",
      \"e\": \"AQAB\", \"use\": \"sig\", \"kid\": \"1\"}]}","saleor_app_id":"uzfbqpkchx","domain":"sbnpsagopi.saleor.cloud"}'
    headers:
      Connection:
      - keep-alive
      Content-Length:
      - '328'
      Content-Type:
      - application/json
      Date:
      - Sun, 19 Feb 2023 17:07:37 GMT
      allow:
      - GET, POST, HEAD, OPTIONS
      referrer-policy:
      - same-origin
      server:
      - uvicorn
      vary:
      - Origin
      x-content-type-options:
      - nosniff
      x-frame-options:
      - DENY
    http_version: HTTP/1.1
    status_code: 201
- request:
    body: '{"saleor_app_id": "fzglnnohvi", "saleor_api_url": "https://msltedyydo.saleor.cloud/graphql",
      "jwks": "{\"keys\": [{\"kty\": \"RSA\", \"key_ops\": [\"verify\"], \"n\": \"msfmpvhxqiqptpcfpvomenrslrmpwf\",
      \"e\": \"AQAB\", \"use\": \"sig\", \"kid\": \"1\"}]}", "domain": "msltedyydo.saleor.cloud",
      "token": "etqfdiojfvufyfpylknharwbkkhcio"}'
    headers:
      accept:
      - '*/*'
      accept-encoding:
      - gzip, deflate
      authorization:
      - Bearer access.token
      connection:
      - keep-alive
      content-length:
      - '337'
      content-type:
      - application/json
      host:
      - apl.example.com
      user-agent:
      - python-httpx/0.23.3
    method: POST
    uri: https://apl.example.com/api/v1/apl
  response:
    content: '{"saleor_api_url":"https://msltedyydo.saleor.cloud/graphql","token":"etqfdiojfvufyfpylknharwbkkhcio","jwks":"{\"keys\":
      [{\"kty\": \"RSA\", \"key_ops\": [\"verify\"], \"n\": \"msfmpvhxqiqptpcfpvomenrslrmpwf\",
      \"e\": \"AQAB\", \"use\": \"sig\", \"kid\": \"1\"}]}","saleor_app_id":"fzglnnohvi","domain":"msltedyydo.saleor.cloud"}'
    headers:
      Connection:
      - keep-alive
      Content-Length:
      - '328'
      Content-Type:
      - application/json
      Date:
      - Sun, 19 Feb 2023 17:07:38 GMT
      allow:
      - GET, POST, HEAD, OPTIONS
      referrer-policy:
      - same-origin
      server:
      - uvicorn
      vary:
      - Origin
      x-content-type-options:
      - nosniff
      x-frame-options:
      - DENY
    http_version: HTTP/1.1
    status_code: 201
- request:
    body: '{"saleor_app_id": "lcedtozpeo", "saleor_api_url": "https://rodnbaorcb.saleor.cloud/graphql",
      "jwks": "{\"keys\": [{\"kty\": \"RSA\", \"key_ops\": [\"verify\"], \"n\": \"djnhwjcbtrydjfvpeltmzglfcsgngd\",
      \"e\": \"AQAB\", \"use\": \"sig\", \"kid\": \"1\"}]}", "domain": "rodnbaorcb.saleor.cloud",
      "token": "nyqokxizwonkuqqexhktbvgussupaz"}'
    headers:
      accept:
      - '*/*'
      accept-encoding:
      - gzip, deflate
      authorization:
      - Bearer access.token
      connection:
      - keep-alive
      content-length:
      - '337'
      content-type:
      - application/json
      host:
      - apl.example.com
      user-agent:
      - python-httpx/0.23.3
    method: POST
    uri: https://apl.example.com/api/v1/apl
  response:
    content: '{"saleor_api_url":"https://rodnbaorcb.saleor.cloud/graphql","token":"nyqokxizwonkuqqexhktbvgussupaz","jwks":"{\"keys\":
      [{\"kty\": \"RSA\", \"key_ops\": [\"verify\"], \"n\": \"djnhwjcbtrydjfvpeltmzglfcsgngd\",
      \"e\": \"AQAB\", \"use\": \"sig\", \"kid\": \"1\"}]}","saleor_app_id":"lcedtozpeo","domain":"rodnbaorcb.saleor.cloud"}'
    headers:
      Connection:
      - keep-alive
      Content-Length:
      - '328'
      Content-Type:
      - application/json
      Date:
      - Sun, 19 Feb 2023 17:07:38 GMT
      allow:
      - GET, POST, HEAD, OPTIONS
      referrer-policy:
      - same-origin
      server:
      - uvicorn
      vary:
      - Origin
      x-content-type-options:
      - nosniff
      x-frame-options:
      - DENY
    http_version: HTTP/1.1
    status_code: 201
- request:
    body: '{"saleor_app_id": "vxrgitlduz", "saleor_api_url": "https://vjoxywqxno.saleor.cloud/graphql",
      "jwks": "{\"keys\": [{\"kty\": \"RSA\", \"key_ops\": [\"verify\"], \"n\": \"pqimouklxipopspcwrxlzxmzftnxsc\",
      \"e\": \"AQAB\", \"use\": \"sig\", \"kid\": \"1\"}]}", "domain": "vjoxywqxno.saleor.cloud",
      "token": "uagntnmzugcynzcblilonyguxjowjq"}'
    headers:
      accept:
      - '*/*'
      accept-encoding:
      - gzip, deflate
      authorization:
      - Bearer access.token
      connection:
      - keep-alive
      content-length:
      - '337'
      content-type:
      - application/json
      host:
      - apl.example.com
      user-agent:
      - python-httpx/0.23.3
    method: POST
    uri: https://apl.example.com/api/v1/apl
  response:
    content: '{"saleor_api_url":"https://vjoxywqxno.saleor.cloud/graphql","token":"uagntnmzugcynzcblilonyguxjowjq","jwks":"{\"keys\":
      [{\"kty\": \"RSA\", \"key_ops\": [\"verify\"], \"n\": \"pqimouklxipopspcwrxlzxmzftnxsc\",
      \"e\": \"AQAB\", \"use\": \"sig\", \"kid\": \"1\"}]}","saleor_app_id":"vxrgitlduz","domain":"vjoxywqxno.saleor.cloud"}'
    headers:
      Connection:
      - keep-alive
      Content-Length:
      - '328'
      Content-Type:
      - application/json
      Date:
      - Sun, 19 Feb 2023 17:07:39 GMT
      allow:
      - GET, POST, HEAD, OPTIONS
      referrer-policy:
      - same-origin
      server:
      - uvicorn
      vary:
      - Origin
      x-content-type-options:
      - nosniff
      x-frame-options:
      - DENY
    http_version: HTTP/1.1
    status_code: 201
- request:
    body: '{"saleor_app_id": "mtljtfhfjd", "saleor_api_url": "https://txjaskukcx.saleor.cloud/graphql",
      "jwks": "{\"keys\": [{\"kty\": \"RSA\", \"key_ops\": [\"verify\"], \"n\": \"bbslmktufyfdtzlfaxrqzlcmoslbeo\",
      \"e\": \"AQAB\", \"use\": \"sig\", \"kid\": \"1\"}]}", "domain": "txjaskukcx.saleor.cloud",
      "token": "rzbhsxcngssozsamgksgqzsyykbvws"}'
    headers:
      accept:
      - '*/*'
      accept-encoding:
      - gzip, deflate
      authorization:
      - Bearer access.token
      connection:
      - keep-alive
      content-length:
      - '337'
      content-type:
      - application/json
      host:
      - apl.example.com
      user-agent:
      - python-httpx/0.23.3
    method: POST
    uri: https://apl.example.com/api/v1/apl
  response:
    content: '{"saleor_api_url":"https://txjaskukcx.saleor.cloud/graphql","token":"rzbhsxcngssozsamgksgqzsyykbvws","jwks":"{\"keys\":
      [{\"kty\": \"RSA\", \"key_ops\": [\"verify\"], \"n\": \"bbslmktufyfdtzlfaxrqzlcmoslbeo\",
      \"e\": \"AQAB\", \"use\": \"sig\", \"kid\": \"1\"}]}","saleor_app_id":"mtljtfhfjd","domain":"txjaskukcx.saleor.cloud"}'
    headers:
      Connection:
      - keep-alive
      Content-Length:
      - '328'
      Content-Type:
      - application/json
      Date:
      - Sun, 19 Feb 2023 17:07:39 GMT
      allow:
      - GET, POST, HEAD, OPTIONS
      referrer-policy:
      - same-origin
      server:
      - uvicorn
      vary:
      - Origin
      x-content-type-options:
      - nosniff
      x-frame-options:
      - DENY
    http_version: HTTP/1.1
    status_code: 201
- request:
    body: '{"saleor_app_id": "krqomgdnue", "saleor_api_url": "https://wptoxotfln.saleor.cloud/graphql",
      "jwks": "{\"keys\": [{\"kty\": \"RSA\", \"key_ops\": [\"verify\"], \"n\": \"nclygpffmzyoykbffswnequwmdmdhd\",
      \"e\": \"AQAB\", \"use\": \"sig\", \"kid\": \"1\"}]}", "domain": "wptoxotfln.saleor.cloud",
      "token": "bfuugsnzlrmbtbfjhbsfduslfjbmty"}'
    headers:
      accept:
      - '*/*'
      accept-encoding:
      - gzip, deflate
      authorization:
      - Bearer access.token
      connection:
      - keep-alive
      content-length:
      - '337'
      content-type:
      - application/json
      host:
      - apl.example.com
      user-agent:
      - python-httpx/0.23.3
    method: POST
    uri: https://apl.example.com/api/v1/apl
  response:
    content: '{"saleor_api_url":"https://wptoxotfln.saleor.cloud/graphql","token":"bfuugsnzlrmbtbfjhbsfduslfjbmty","jwks":"{\"keys\":
      [{\"kty\": \"RSA\", \"key_ops\": [\"verify\"], \"n\": \"nclygpffmzyoykbffswnequwmdmdhd\",
      \"e\": \"AQAB\", \"use\": \"sig\", \"kid\": \"1\"}]}","saleor_app_id":"krqomgdnue","domain":"wptoxotfln.saleor.cloud"}'
    headers:
      Connection:
      - keep-alive
      Content-Length:
      - '328'
      Content-Type:
      - application/json
      Date:
      - Sun, 19 Feb 2023 17:07:39 GMT
      allow:
      - GET, POST, HEAD, OPTIONS
      referrer-policy:
      - same-origin
      server:
      - uvicorn
      vary:
      - Origin
      x-content-type-options:
      - nosniff
      x-frame-options:
      - DENY
    http_version: HTTP/1.1
    status_code: 201
- request:
    body: '{"saleor_app_id": "qtpthrjavf", "saleor_api_url": "https://nxujxjrudl.saleor.cloud/graphql",
      "jwks": "{\"keys\": [{\"kty\": \"RSA\", \"key_ops\": [\"verify\"], \"n\": \"fxblkupzfagejghhmtrstnryaeadab\",
      \"e\": \"AQAB\", \"use\": \"sig\", \"kid\": \"1\"}]}", "domain": "nxujxjrudl.saleor.cloud",
      "token": "vmwhdquypdsmsgjlcgtrqacmzbaunk"}'
    headers:
      accept:
      - '*/*'
      accept-encoding:
      - gzip, deflate
      authorization:
      - Bearer access.token
      connection:
      - keep-alive
      content-length:
      - '337'
      content-type:
      - application/json
      host:
      - apl.example.com
      user-agent:
      - python-httpx/0.23.3
    method: POST
    uri: https://apl.example.com/api/v1/apl
  response:
    content: '{"saleor_api_url":"https://nxujxjrudl.saleor.cloud/graphql","token":"vmwhdquypdsmsgjlcgtrqacmzbaunk","jwks":"{\"keys\":
      [{\"kty\": \"RSA\", \"key_ops\": [\"verify\"], \"n\": \"fxblkupzfagejghhmtrstnryaeadab\",
      \"e\": \"AQAB\", \"use\": \"sig\", \"kid\": \"1\"}]}","saleor_app_id":"qtpthrjavf","domain":"nxujxjrudl.saleor.cloud"}'
    headers:
      Connection:
      - keep-alive
      Content-Length:
      - '328'
      Content-Type:
      - application/json
      Date:
      - Sun, 19 Feb 2023 17:07:40 GMT
      allow:
      - GET, POST, HEAD, OPTIONS
      referrer-policy:
      - same-origin
      server:
      - uvicorn
      vary:
      - Origin
      x-content-type-options:
      - nosniff
      x-frame-options:
      - DENY
    http_version: HTTP/1.1
    status_code: 201
- request:
    body: '{"saleor_app_id": "nxvftnbrfb", "saleor_api_url": "https://vyyfdwmcav.saleor.cloud/graphql",
      "jwks": "{\"keys\": [{\"kty\": \"RSA\", \"key_ops\": [\"verify\"], \"n\": \"ydrdjwtzkzasiuyqnqewbubtbugrag\",
      \"e\": \"AQAB\", \"use\": \"sig\", \"kid\": \"1\"}]}", "domain": "vyyfdwmcav.saleor.cloud",
      "token": "wmsookfbmuopwwlvceiifcoaeicqje"}'
    headers:
      accept:
      - '*/*'
      accept-encoding:
      - gzip, deflate
      authorization:
      - Bearer access.token
      connection:
      - keep-alive
      content-length:
      - '337'
      content-type:
      - application/json
      host:
      - apl.example.com
      user-agent:
      - python-httpx/0.23.3
    method: POST
    uri: https://apl.example.com/api/v1/apl
  response:
    content: '{"saleor_api_url":"https://vyyfdwmcav.saleor.cloud/graphql","token":"wmsookfbmuopwwlvceiifcoaeicqje","jwks":"{\"keys\":
      [{\"kty\": \"RSA\", \"key_ops\": [\"verify\"], \"n\": \"ydrdjwtzkzasiuyqnqewbubtbugrag\",
      \"e\": \"AQAB\", \"use\": \"sig\", \"kid\": \"1\"}]}","saleor_app_id":"nxvftnbrfb","domain":"vyyfdwmcav.saleor.cloud"}'
    headers:
      Connection:
      - keep-alive
      Content-Length:
      - '328'
      Content-Type:
      - application/json
      Date:
      - Sun, 19 Feb 2023 17:07:40 GMT
      allow:
      - GET, POST, HEAD, OPTIONS
      referrer-policy:
      - same-origin
      server:
      - uvicorn
      vary:
      - Origin
      x-content-type-options:
      - nosniff
      x-frame-options:
      - DENY
    http_version: HTTP/1.1
    status_code: 201
- request:
    body: '{"saleor_app_id": "dpjoofueam", "saleor_api_url": "https://ejwnealqvw.saleor.cloud/graphql",
      "jwks": "{\"keys\": [{\"kty\": \"RSA\", \"key_ops\": [\"verify\"], \"n\": \"ukxkebobvkqqbmtyzcwxbebalnhvps\",
      \"e\": \"AQAB\", \"use\": \"sig\", \"kid\": \"1\"}]}", "domain": "ejwnealqvw.saleor.cloud",
      "token": "teovwyfkqvpebpsmfpwigpqlusyrme"}'
    headers:
      accept:
      - '*/*'
      accept-encoding:
      - gzip, deflate
      authorization:
      - Bearer access.token
      connection:
      - keep-alive
      content-length:
      - '337'
      content-type:
      - application/json
      host:
      - apl.example.com
      user-agent:
      - python-httpx/0.23.3
    method: POST
    uri: https://apl.example.com/api/v1/apl
  response:
    content: '{"saleor_api_url":"https://ejwnealqvw.saleor.cloud/graphql","token":"teovwyfkqvpebpsmfpwigpqlusyrme","jwks":"{\"keys\":
      [{\"kty\": \"RSA\", \"key_ops\": [\"verify\"], \"n\": \"ukxkebobvkqqbmtyzcwxbebalnhvps\",
      \"e\": \"AQAB\", \"use\": \"sig\", \"kid\": \"1\"}]}","saleor_app_id":"dpjoofueam","domain":"ejwnealqvw.saleor.cloud"}'
    headers:
      Connection:
      - keep-alive
      Content-Length:
      - '328'
      Content-Type:
      - application/json
      Date:
      - Sun, 19 Feb 2023 17:07:41 GMT
      allow:
      - GET, POST, HEAD, OPTIONS
      referrer-policy:
      - same-origin
      server:
      - uvicorn
      vary:
      - Origin
      x-content-type-options:
      - nosniff
      x-frame-options:
      - DENY
    http_version: HTTP/1.1
    status_code: 201
- request:
    body: '{"saleor_app_id": "fxeyumrwrg", "saleor_api_url": "https://vxcdclzonj.saleor.cloud/graphql",
      "jwks": "{\"keys\": [{\"kty\": \"RSA\", \"key_ops\": [\"verify\"], \"n\": \"aofvflmughkjsiebpnlkakvjqywsbn\",
      \"e\": \"AQAB\", \"use\": \"sig\", \"kid\": \"1\"}]}", "domain": "vxcdclzonj.saleor.cloud",
      "token": "vxhxemgqtpvvmzgcrxxetsrecvmocg"}'
    headers:
      accept:
      - '*/*'
      accept-encoding:
      - gzip, deflate
      authorization:
      - Bearer access.token
      connection:
      - keep-alive
      content-length:
      - '337'
      content-type:
      - application/json
      host:
      - apl.example.com
      user-agent:
      - python-httpx/0.23.3
    method: POST
    uri: https://apl.example.com/api/v1/apl
  response:
    content: '{"saleor_api_url":"https://vxcdclzonj.saleor.cloud/graphql","token":"vxhxemgqtpvvmzgcrxxetsrecvmocg","jwks":"{\"keys\":
      [{\"kty\": \"RSA\", \"key_ops\": [\"verify\"], \"n\": \"aofvflmughkjsiebpnlkakvjqywsbn\",
      \"e\": \"AQAB\", \"use\": \"sig\", \"kid\": \"1\"}]}","saleor_app_id":"fxeyumrwrg","domain":"vxcdclzonj.saleor.cloud"}'
    headers:
      Connection:
      - keep-alive
      Content-Length:
      - '328'
      Content-Type:
      - application/json
      Date:
      - Sun, 19 Feb 2023 17:07:41 GMT
      allow:
      - GET, POST, HEAD, OPTIONS
      referrer-policy:
      - same-origin
      server:
      - uvicorn
      vary:
      - Origin
      x-content-type-options:
      - nosniff
      x-frame-options:
      - DENY
    http_version: HTTP/1.1
    status_code: 201
- request:
    body: ''
    headers:
      accept:
      - '*/*'
      accept-encoding:
      - gzip, deflate
      authorization:
      - Bearer access.token
      connection:
      - keep-alive
      host:
      - apl.example.com
      user-agent:
      - python-httpx/0.23.3
    method: GET
    uri: https://apl.example.com/api/v1/apl?limit=2&offset=0
  response:
    content: '{"count":10,"next":"http://apl.example.com/api/v1/apl?limit=2&offset=2","previous":null,"results":[{"saleor_api_url":"https://sbnpsagopi.saleor.cloud/graphql","token":"lbnetlmnjviofvjvleoyhotmbsaheg","jwks":"{\"keys\":
      [{\"kty\": \"RSA\", \"key_ops\": [\"verify\"], \"n\": \"jrlyhkvronpcuskqfhnhbbpjtvcrce\",
      \"e\": \"AQAB\", \"use\": \"sig\", \"kid\": \"1\"}]}","saleor_app_id":"uzfbqpkchx","domain":"sbnpsagopi.saleor.cloud"},{"saleor_api_url":"https://msltedyydo.saleor.cloud/graphql","token":"etqfdiojfvufyfpylknharwbkkhcio","jwks":"{\"keys\":
      [{\"kty\": \"RSA\", \"key_ops\": [\"verify\"], \"n\": \"msfmpvhxqiqptpcfpvomenrslrmpwf\",
      \"e\": \"AQAB\", \"use\": \"sig\", \"kid\": \"1\"}]}","saleor_app_id":"fzglnnohvi","domain":"msltedyydo.saleor.cloud"}]}'
    headers:
      Connection:
      - keep-alive
      Content-Length:
      - '779'
      Content-Type:
      - application/json
      Date:
      - Sun, 19 Feb 2023 17:07:41 GMT
      allow:
      - GET, POST, HEAD, OPTIONS
      referrer-policy:
      - same-origin
      server:
      - uvicorn
      vary:
      - Origin
      x-content-type-options:
      - nosniff
      x-frame-options:
      - DENY
    http_version: HTTP/1.1
    status_code: 200
- request:
    body: ''
    headers:
      accept:
      - '*/*'
      accept-encoding:
      - gzip, deflate
      authorization:
      - Bearer access.token
      connection:
      - keep-alive
      host:
      - apl.example.com
      user-agent:
      - python-httpx/0.23.3
    method: GET
    uri: https://apl.example.com/api/v1/apl?limit=2&offset=2
  response:
    content: '{"count":10,"next":"http://apl.example.com/api/v1/apl?limit=2&offset=4","previous":"http://apl.example.com/api/v1/apl?limit=2","results":[{"saleor_api_url":"https://rodnbaorcb.saleor.cloud/graphql","token":"nyqokxizwonkuqqexhktbvgussupaz","jwks":"{\"keys\":
      [{\"kty\": \"RSA\", \"key_ops\": [\"verify\"], \"n\": \"djnhwjcbtrydjfvpeltmzglfcsgngd\",
      \"e\": \"AQAB\", \"use\": \"sig\", \"kid\": \"1\"}]}","saleor_app_id":"lcedtozpeo","domain":"rodnbaorcb.saleor.cloud"},{"saleor_api_url":"https://vjoxywqxno.saleor.cloud/graphql","token":"uagntnmzugcynzcblilonyguxjowjq","jwks":"{\"keys\":
      [{\"kty\": \"RSA\", \"key_ops\": [\"verify\"], \"n\": \"pqimouklxipopspcwrxlzxmzftnxsc\",
      \"e\": \"AQAB\", \"use\": \"sig\", \"kid\": \"1\"}]}","saleor_app_id":"vxrgitlduz","domain":"vjoxywqxno.saleor.cloud"}]}'
    headers:
      Connection:
      - keep-alive
      Content-Length:
      - '839'
      Content-Type:
      - application/json
      Date:
      - Sun, 19 Feb 2023 17:07:42 GMT
      allow:
      - GET, POST, HEAD, OPTIONS
      referrer-policy:
      - same-origin
      server:
      - uvicorn
      vary:
      - Origin
      x-content-type-options:
      - nosniff
      x-frame-options:
      - DENY
    http_version: HTTP/1.1
    status_code: 200
- request:
    body: ''
    headers:
      accept:
      - '*/*'
      accept-encoding:
      - gzip, deflate
      authorization:
      - Bearer access.token
      connection:
      - keep-alive
      host:
      - apl.example.com
      user-agent:
      - python-httpx/0.23.3
    method: GET
    uri: https://apl.example.com/api/v1/apl?limit=2&offset=4
  response:
    content: '{"count":10,"next":"http://apl.example.com/api/v1/apl?limit=2&offset=6","previous":"http://apl.example.com/api/v1/apl?limit=2&offset=2","results":[{"saleor_api_url":"https://txjaskukcx.saleor.cloud/graphql","token":"rzbhsxcngssozsamgksgqzsyykbvws","jwks":"{\"keys\":
      [{\"kty\": \"RSA\", \"key_ops\": [\"verify\"], \"n\": \"bbslmktufyfdtzlfaxrqzlcmoslbeo\",
      \"e\": \"AQAB\", \"use\": \"sig\", \"kid\": \"1\"}]}","saleor_app_id":"mtljtfhfjd","domain":"txjaskukcx.saleor.cloud"},{"saleor_api_url":"https://wptoxotfln.saleor.cloud/graphql","token":"bfuugsnzlrmbtbfjhbsfduslfjbmty","jwks":"{\"keys\":
      [{\"kty\": \"RSA\", \"key_ops\": [\"verify\"], \"n\": \"nclygpffmzyoykbffswnequwmdmdhd\",
      \"e\": \"AQAB\", \"use\": \"sig\", \"kid\": \"1\"}]}","saleor_app_id":"krqomgdnue","domain":"wptoxotfln.saleor.cloud"}]}'
    headers:
      Connection:
      - keep-alive
      Content-Length:
      - '848'
      Content-Type:
      - application/json
      Date:
      - Sun, 19 Feb 2023 17:07:42 GMT
      allow:
      - GET, POST, HEAD, OPTIONS
      referrer-policy:
      - same-origin
      server:
      - uvicorn
      vary:
      - Origin
      x-content-type-options:
      - nosniff
      x-frame-options:
      - DENY
    http_version: HTTP/1.1
    status_code: 200
- request:
    body: ''
    headers:
      accept:
      - '*/*'
      accept-encoding:
      - gzip, deflate
      authorization:
      - Bearer access.token
      connection:
      - keep-alive
      host:
      - apl.example.com
      user-agent:
      - python-httpx/0.23.3
    method: GET
    uri: https://apl.example.com/api/v1/apl?limit=2&offset=6
  response:
    content: '{"count":10,"next":"http://apl.example.com/api/v1/apl?limit=2&offset=8","previous":"http://apl.example.com/api/v1/apl?limit=2&offset=4","results":[{"saleor_api_url":"https://nxujxjrudl.saleor.cloud/graphql","token":"vmwhdquypdsmsgjlcgtrqacmzbaunk","jwks":"{\"keys\":
      [{\"kty\": \"RSA\", \"key_ops\": [\"verify\"], \"n\": \"fxblkupzfagejghhmtrstnryaeadab\",
      \"e\": \"AQAB\", \"use\": \"sig\", \"kid\": \"1\"}]}","saleor_app_id":"qtpthrjavf","domain":"nxujxjrudl.saleor.cloud"},{"saleor_api_url":"https://vyyfdwmcav.saleor.cloud/graphql","token":"wmsookfbmuopwwlvceiifcoaeicqje","jwks":"{\"keys\":
      [{\"kty\": \"RSA\", \"key_ops\": [\"verify\"], \"n\": \"ydrdjwtzkzasiuyqnqewbubtbugrag\",
      \"e\": \"AQAB\", \"use\": \"sig\", \"kid\": \"1\"}]}","saleor_app_id":"nxvftnbrfb","domain":"vyyfdwmcav.saleor.cloud"}]}'
    headers:
      Connection:
      - keep-alive
      Content-Length:
      - '848'
      Content-Type:
      - application/json
      Date:
      - Sun, 19 Feb 2023 17:07:42 GMT
      allow:
      - GET, POST, HEAD, OPTIONS
      referrer-policy:
      - same-origin
      server:
      - uvicorn
      vary:
      - Origin
      x-content-type-options:
      - nosniff
      x-frame-options:
      - DENY
    http_version: HTTP/1.1
    status_code: 200
- request:
    body: ''
    headers:
      accept:
      - '*/*'
      accept-encoding:
      - gzip, deflate
      authorization:
      - Bearer access.token
      connection:
      - keep-alive
      host:
      - apl.example.com
      user-agent:
      - python-httpx/0.23.3
    method: GET
    uri: https://apl.example.com/api/v1/apl?limit=2&offset=8
  response:
    content: '{"count":10,"next":null,"previous":"http://apl.example.com/api/v1/apl?limit=2&offset=6","results":[{"saleor_api_url":"https://ejwnealqvw.saleor.cloud/graphql","token":"teovwyfkqvpebpsmfpwigpqlusyrme","jwks":"{\"keys\":
      [{\"kty\": \"RSA\", \"key_ops\": [\"verify\"], \"n\": \"ukxkebobvkqqbmtyzcwxbebalnhvps\",
      \"e\": \"AQAB\", \"use\": \"sig\", \"kid\": \"1\"}]}","saleor_app_id":"dpjoofueam","domain":"ejwnealqvw.saleor.cloud"},{"saleor_api_url":"https://vxcdclzonj.saleor.cloud/graphql","token":"vxhxemgqtpvvmzgcrxxetsrecvmocg","jwks":"{\"keys\":
      [{\"kty\": \"RSA\", \"key_ops\": [\"verify\"], \"n\": \"aofvflmughkjsiebpnlkakvjqywsbn\",
      \"e\": \"AQAB\", \"use\": \"sig\", \"kid\": \"1\"}]}","saleor_app_id":"fxeyumrwrg","domain":"vxcdclzonj.saleor.cloud"}]}'
    headers:
      Connection:
      - keep-alive
      Content-Length:
      - '779'
      Content-Type:
      - application/json
      Date:
      - Sun, 19 Feb 2023 17:07:43 GMT
      allow:
      - GET, POST, HEAD, OPTIONS
      referrer-policy:
      - same-origin
      server:
      - uvicorn
      vary:
      - Origin
      x-content-type-options:
      - nosniff
      x-frame-options:
      - DENY
    http_version: HTTP/1.1
    status_code: 200
version: 1
